{
  "version": 1,
  "isRoot": true,
  "tools": {
    "nuke.globaltool": {
      "version": "5.0.2",
      "commands": [
        "nuke"
      ]
    },
    "dotnet-reportgenerator-globaltool": {
      "version": "4.8.7",
      "commands": [
        "reportgenerator"
      ]
    },
    "dotnet-sonarscanner": {
      "version": "5.0.4",
      "commands": [
        "dotnet-sonarscanner"
      ]
    },
    "gitversion.tool": {
      "version": "5.6.6",
      "commands": [
        "dotnet-gitversion"
      ]
    }
  }
}